^C:\Users\mrsma\OneDrive\Documents\Visual Studio 2017\Projects\Planets\Planets\Planets.vcxproj
C:\Users\mrsma\OneDrive\Documents\Visual Studio 2017\Projects\Planets\Release\Planets.ipdb
C:\Users\mrsma\OneDrive\Documents\Visual Studio 2017\Projects\Planets\Release\Planets.iobj
^C:\Users\mrsma\OneDrive\Documents\Visual Studio 2017\Projects\Planets\Planets\Planets.vcxproj
C:\Users\mrsma\OneDrive\Documents\Visual Studio 2017\Projects\Planets\Release\Planets.ipdb
C:\Users\mrsma\OneDrive\Documents\Visual Studio 2017\Projects\Planets\Release\Planets.iobj
^C:\Users\mrsma\OneDrive\Documents\Visual Studio 2017\Projects\Planets\Planets\Planets.vcxproj
C:\Users\mrsma\OneDrive\Documents\Visual Studio 2017\Projects\Planets\Release\Planets.ipdb
C:\Users\mrsma\OneDrive\Documents\Visual Studio 2017\Projects\Planets\Release\Planets.iobj
^C:\Users\mrsma\OneDrive\Documents\Visual Studio 2017\Projects\Planets\Planets\Planets.vcxproj
C:\Users\mrsma\OneDrive\Documents\Visual Studio 2017\Projects\Planets\Release\Planets.ipdb
C:\Users\mrsma\OneDrive\Documents\Visual Studio 2017\Projects\Planets\Release\Planets.iobj
^C:\Users\mrsma\OneDrive\Documents\Visual Studio 2017\Projects\Planets\Planets\Planets.vcxproj
C:\Users\mrsma\OneDrive\Documents\Visual Studio 2017\Projects\Planets\Release\Planets.ipdb
C:\Users\mrsma\OneDrive\Documents\Visual Studio 2017\Projects\Planets\Release\Planets.iobj
^C:\Users\mrsma\OneDrive\Documents\Visual Studio 2017\Projects\Planets\Planets\Planets.vcxproj
C:\Users\mrsma\OneDrive\Documents\Visual Studio 2017\Projects\Planets\Release\Planets.ipdb
C:\Users\mrsma\OneDrive\Documents\Visual Studio 2017\Projects\Planets\Release\Planets.iobj
^C:\Users\mrsma\OneDrive\Documents\Visual Studio 2017\Projects\Planets\Planets\Planets.vcxproj
C:\Users\mrsma\OneDrive\Documents\Visual Studio 2017\Projects\Planets\Release\Planets.ipdb
C:\Users\mrsma\OneDrive\Documents\Visual Studio 2017\Projects\Planets\Release\Planets.iobj
^C:\Users\mrsma\OneDrive\Documents\Visual Studio 2017\Projects\Planets\Planets\Planets.vcxproj
C:\Users\mrsma\OneDrive\Documents\Visual Studio 2017\Projects\Planets\Release\Planets.ipdb
C:\Users\mrsma\OneDrive\Documents\Visual Studio 2017\Projects\Planets\Release\Planets.iobj
^C:\Users\mrsma\OneDrive\Documents\Visual Studio 2017\Projects\Planets\Planets\Planets.vcxproj
C:\Users\mrsma\OneDrive\Documents\Visual Studio 2017\Projects\Planets\Release\Planets.ipdb
C:\Users\mrsma\OneDrive\Documents\Visual Studio 2017\Projects\Planets\Release\Planets.iobj
^C:\Users\mrsma\OneDrive\Documents\Visual Studio 2017\Projects\Planets\Planets\Planets.vcxproj
C:\Users\mrsma\OneDrive\Documents\Visual Studio 2017\Projects\Planets\Release\Planets.ipdb
C:\Users\mrsma\OneDrive\Documents\Visual Studio 2017\Projects\Planets\Release\Planets.iobj
^C:\Users\mrsma\OneDrive\Documents\Visual Studio 2017\Projects\Planets\Planets\Planets.vcxproj
C:\Users\mrsma\OneDrive\Documents\Visual Studio 2017\Projects\Planets\Release\Planets.ipdb
C:\Users\mrsma\OneDrive\Documents\Visual Studio 2017\Projects\Planets\Release\Planets.iobj
^C:\Users\mrsma\OneDrive\Documents\Visual Studio 2017\Projects\Planets\Planets\Planets.vcxproj
C:\Users\mrsma\OneDrive\Documents\Visual Studio 2017\Projects\Planets\Release\Planets.ipdb
C:\Users\mrsma\OneDrive\Documents\Visual Studio 2017\Projects\Planets\Release\Planets.iobj
^C:\Users\mrsma\OneDrive\Documents\Visual Studio 2017\Projects\Planets\Planets\Planets.vcxproj
C:\Users\mrsma\OneDrive\Documents\Visual Studio 2017\Projects\Planets\Release\Planets.ipdb
C:\Users\mrsma\OneDrive\Documents\Visual Studio 2017\Projects\Planets\Release\Planets.iobj
^C:\Users\mrsma\OneDrive\Documents\Visual Studio 2017\Projects\Planets\Planets\Planets.vcxproj
C:\Users\mrsma\OneDrive\Documents\Visual Studio 2017\Projects\Planets\Release\Planets.ipdb
C:\Users\mrsma\OneDrive\Documents\Visual Studio 2017\Projects\Planets\Release\Planets.iobj
^C:\Users\mrsma\OneDrive\Documents\Visual Studio 2017\Projects\Planets\Planets\Planets.vcxproj
C:\Users\mrsma\OneDrive\Documents\Visual Studio 2017\Projects\Planets\Release\Planets.ipdb
C:\Users\mrsma\OneDrive\Documents\Visual Studio 2017\Projects\Planets\Release\Planets.iobj
^C:\Users\mrsma\OneDrive\Documents\Visual Studio 2017\Projects\Planets\Planets\Planets.vcxproj
C:\Users\mrsma\OneDrive\Documents\Visual Studio 2017\Projects\Planets\Release\Planets.ipdb
C:\Users\mrsma\OneDrive\Documents\Visual Studio 2017\Projects\Planets\Release\Planets.iobj
^C:\Users\mrsma\OneDrive\Documents\Visual Studio 2017\Projects\Planets\Planets\Planets.vcxproj
C:\Users\mrsma\OneDrive\Documents\Visual Studio 2017\Projects\Planets\Release\Planets.ipdb
C:\Users\mrsma\OneDrive\Documents\Visual Studio 2017\Projects\Planets\Release\Planets.iobj
^C:\Users\mrsma\OneDrive\Documents\Visual Studio 2017\Projects\Planets\Planets\Planets.vcxproj
C:\Users\mrsma\OneDrive\Documents\Visual Studio 2017\Projects\Planets\Release\Planets.ipdb
C:\Users\mrsma\OneDrive\Documents\Visual Studio 2017\Projects\Planets\Release\Planets.iobj
^C:\Users\mrsma\OneDrive\Documents\Visual Studio 2017\Projects\Planets\Planets\Planets.vcxproj
C:\Users\mrsma\OneDrive\Documents\Visual Studio 2017\Projects\Planets\Release\Planets.ipdb
C:\Users\mrsma\OneDrive\Documents\Visual Studio 2017\Projects\Planets\Release\Planets.iobj
^C:\Users\mrsma\OneDrive\Documents\Visual Studio 2017\Projects\Planets\Planets\Planets.vcxproj
C:\Users\mrsma\OneDrive\Documents\Visual Studio 2017\Projects\Planets\Release\Planets.ipdb
C:\Users\mrsma\OneDrive\Documents\Visual Studio 2017\Projects\Planets\Release\Planets.iobj
^C:\Users\mrsma\OneDrive\Documents\Visual Studio 2017\Projects\Planets\Planets\Planets.vcxproj
C:\Users\mrsma\OneDrive\Documents\Visual Studio 2017\Projects\Planets\Release\Planets.ipdb
C:\Users\mrsma\OneDrive\Documents\Visual Studio 2017\Projects\Planets\Release\Planets.iobj
^C:\Users\mrsma\OneDrive\Documents\Visual Studio 2017\Projects\Planets\Planets\Planets.vcxproj
C:\Users\mrsma\OneDrive\Documents\Visual Studio 2017\Projects\Planets\Release\Planets.ipdb
C:\Users\mrsma\OneDrive\Documents\Visual Studio 2017\Projects\Planets\Release\Planets.iobj
^C:\Users\mrsma\OneDrive\Documents\Visual Studio 2017\Projects\Planets\Planets\Planets.vcxproj
C:\Users\mrsma\OneDrive\Documents\Visual Studio 2017\Projects\Planets\Release\Planets.ipdb
C:\Users\mrsma\OneDrive\Documents\Visual Studio 2017\Projects\Planets\Release\Planets.iobj
^C:\Users\mrsma\OneDrive\Documents\Visual Studio 2017\Projects\Planets\Planets\Planets.vcxproj
C:\Users\mrsma\OneDrive\Documents\Visual Studio 2017\Projects\Planets\Release\Planets.ipdb
C:\Users\mrsma\OneDrive\Documents\Visual Studio 2017\Projects\Planets\Release\Planets.iobj
^C:\Users\mrsma\OneDrive\Documents\Visual Studio 2017\Projects\Planets\Planets\Planets.vcxproj
C:\Users\mrsma\OneDrive\Documents\Visual Studio 2017\Projects\Planets\Release\Planets.ipdb
C:\Users\mrsma\OneDrive\Documents\Visual Studio 2017\Projects\Planets\Release\Planets.iobj
^C:\Users\mrsma\OneDrive\Documents\Visual Studio 2017\Projects\Planets\Planets\Planets.vcxproj
C:\Users\mrsma\OneDrive\Documents\Visual Studio 2017\Projects\Planets\Release\Planets.ipdb
C:\Users\mrsma\OneDrive\Documents\Visual Studio 2017\Projects\Planets\Release\Planets.iobj
^C:\Users\mrsma\OneDrive\Documents\Visual Studio 2017\Projects\Planets\Planets\Planets.vcxproj
C:\Users\mrsma\OneDrive\Documents\Visual Studio 2017\Projects\Planets\Release\Planets.ipdb
C:\Users\mrsma\OneDrive\Documents\Visual Studio 2017\Projects\Planets\Release\Planets.iobj
^C:\Users\mrsma\OneDrive\Documents\Visual Studio 2017\Projects\Planets\Planets\Planets.vcxproj
C:\Users\mrsma\OneDrive\Documents\Visual Studio 2017\Projects\Planets\Release\Planets.ipdb
C:\Users\mrsma\OneDrive\Documents\Visual Studio 2017\Projects\Planets\Release\Planets.iobj
^C:\Users\mrsma\OneDrive\Documents\Visual Studio 2017\Projects\Planets\Planets\Planets.vcxproj
C:\Users\mrsma\OneDrive\Documents\Visual Studio 2017\Projects\Planets\Release\Planets.ipdb
C:\Users\mrsma\OneDrive\Documents\Visual Studio 2017\Projects\Planets\Release\Planets.iobj
^C:\Users\mrsma\OneDrive\Documents\Visual Studio 2017\Projects\Planets\Planets\Planets.vcxproj
C:\Users\mrsma\OneDrive\Documents\Visual Studio 2017\Projects\Planets\Release\Planets.ipdb
C:\Users\mrsma\OneDrive\Documents\Visual Studio 2017\Projects\Planets\Release\Planets.iobj
^C:\Users\mrsma\OneDrive\Documents\Visual Studio 2017\Projects\Planets\Planets\Planets.vcxproj
C:\Users\mrsma\OneDrive\Documents\Visual Studio 2017\Projects\Planets\Release\Planets.ipdb
C:\Users\mrsma\OneDrive\Documents\Visual Studio 2017\Projects\Planets\Release\Planets.iobj
^C:\Users\mrsma\OneDrive\Documents\Visual Studio 2017\Projects\Planets\Planets\Planets.vcxproj
C:\Users\mrsma\OneDrive\Documents\Visual Studio 2017\Projects\Planets\Release\Planets.ipdb
C:\Users\mrsma\OneDrive\Documents\Visual Studio 2017\Projects\Planets\Release\Planets.iobj
^C:\Users\mrsma\OneDrive\Documents\Visual Studio 2017\Projects\Planets\Planets\Planets.vcxproj
C:\Users\mrsma\OneDrive\Documents\Visual Studio 2017\Projects\Planets\Release\Planets.ipdb
C:\Users\mrsma\OneDrive\Documents\Visual Studio 2017\Projects\Planets\Release\Planets.iobj
^C:\Users\mrsma\OneDrive\Documents\Visual Studio 2017\Projects\Planets\Planets\Planets.vcxproj
C:\Users\mrsma\OneDrive\Documents\Visual Studio 2017\Projects\Planets\Release\Planets.ipdb
C:\Users\mrsma\OneDrive\Documents\Visual Studio 2017\Projects\Planets\Release\Planets.iobj
^C:\Users\mrsma\OneDrive\Documents\Visual Studio 2017\Projects\Planets\Planets\Planets.vcxproj
C:\Users\mrsma\OneDrive\Documents\Visual Studio 2017\Projects\Planets\Release\Planets.ipdb
C:\Users\mrsma\OneDrive\Documents\Visual Studio 2017\Projects\Planets\Release\Planets.iobj
^C:\Users\mrsma\OneDrive\Documents\Visual Studio 2017\Projects\Planets\Planets\Planets.vcxproj
C:\Users\mrsma\OneDrive\Documents\Visual Studio 2017\Projects\Planets\Release\Planets.ipdb
C:\Users\mrsma\OneDrive\Documents\Visual Studio 2017\Projects\Planets\Release\Planets.iobj
^C:\Users\mrsma\OneDrive\Documents\Visual Studio 2017\Projects\Planets\Planets\Planets.vcxproj
C:\Users\mrsma\OneDrive\Documents\Visual Studio 2017\Projects\Planets\Release\Planets.ipdb
C:\Users\mrsma\OneDrive\Documents\Visual Studio 2017\Projects\Planets\Release\Planets.iobj
^C:\Users\mrsma\OneDrive\Documents\Visual Studio 2017\Projects\Planets\Planets\Planets.vcxproj
C:\Users\mrsma\OneDrive\Documents\Visual Studio 2017\Projects\Planets\Release\Planets.ipdb
C:\Users\mrsma\OneDrive\Documents\Visual Studio 2017\Projects\Planets\Release\Planets.iobj
^C:\Users\mrsma\OneDrive\Documents\Visual Studio 2017\Projects\Planets\Planets\Planets.vcxproj
C:\Users\mrsma\OneDrive\Documents\Visual Studio 2017\Projects\Planets\Release\Planets.ipdb
C:\Users\mrsma\OneDrive\Documents\Visual Studio 2017\Projects\Planets\Release\Planets.iobj
^C:\Users\mrsma\OneDrive\Documents\Visual Studio 2017\Projects\Planets\Planets\Planets.vcxproj
C:\Users\mrsma\OneDrive\Documents\Visual Studio 2017\Projects\Planets\Release\Planets.ipdb
C:\Users\mrsma\OneDrive\Documents\Visual Studio 2017\Projects\Planets\Release\Planets.iobj
^C:\Users\mrsma\OneDrive\Documents\Visual Studio 2017\Projects\Planets\Planets\Planets.vcxproj
C:\Users\mrsma\OneDrive\Documents\Visual Studio 2017\Projects\Planets\Release\Planets.ipdb
C:\Users\mrsma\OneDrive\Documents\Visual Studio 2017\Projects\Planets\Release\Planets.iobj
^C:\Users\mrsma\OneDrive\Documents\Visual Studio 2017\Projects\Planets\Planets\Planets.vcxproj
C:\Users\mrsma\OneDrive\Documents\Visual Studio 2017\Projects\Planets\Release\Planets.ipdb
C:\Users\mrsma\OneDrive\Documents\Visual Studio 2017\Projects\Planets\Release\Planets.iobj
^C:\Users\mrsma\OneDrive\Documents\Visual Studio 2017\Projects\Planets\Planets\Planets.vcxproj
C:\Users\mrsma\OneDrive\Documents\Visual Studio 2017\Projects\Planets\Release\Planets.ipdb
C:\Users\mrsma\OneDrive\Documents\Visual Studio 2017\Projects\Planets\Release\Planets.iobj
^C:\Users\mrsma\OneDrive\Documents\Visual Studio 2017\Projects\Planets\Planets\Planets.vcxproj
C:\Users\mrsma\OneDrive\Documents\Visual Studio 2017\Projects\Planets\Release\Planets.ipdb
C:\Users\mrsma\OneDrive\Documents\Visual Studio 2017\Projects\Planets\Release\Planets.iobj
^C:\Users\mrsma\OneDrive\Documents\Visual Studio 2017\Projects\Planets\Planets\Planets.vcxproj
C:\Users\mrsma\OneDrive\Documents\Visual Studio 2017\Projects\Planets\Release\Planets.ipdb
C:\Users\mrsma\OneDrive\Documents\Visual Studio 2017\Projects\Planets\Release\Planets.iobj
^C:\Users\mrsma\OneDrive\Documents\Visual Studio 2017\Projects\Planets\Planets\Planets.vcxproj
C:\Users\mrsma\OneDrive\Documents\Visual Studio 2017\Projects\Planets\Release\Planets.ipdb
C:\Users\mrsma\OneDrive\Documents\Visual Studio 2017\Projects\Planets\Release\Planets.iobj
^C:\Users\mrsma\OneDrive\Documents\Visual Studio 2017\Projects\Planets\Planets\Planets.vcxproj
C:\Users\mrsma\OneDrive\Documents\Visual Studio 2017\Projects\Planets\Release\Planets.ipdb
C:\Users\mrsma\OneDrive\Documents\Visual Studio 2017\Projects\Planets\Release\Planets.iobj
^C:\Users\mrsma\OneDrive\Documents\Visual Studio 2017\Projects\Planets\Planets\Planets.vcxproj
C:\Users\mrsma\OneDrive\Documents\Visual Studio 2017\Projects\Planets\Release\Planets.ipdb
C:\Users\mrsma\OneDrive\Documents\Visual Studio 2017\Projects\Planets\Release\Planets.iobj
^C:\Users\mrsma\OneDrive\Documents\Visual Studio 2017\Projects\Planets\Planets\Planets.vcxproj
C:\Users\mrsma\OneDrive\Documents\Visual Studio 2017\Projects\Planets\Release\Planets.ipdb
C:\Users\mrsma\OneDrive\Documents\Visual Studio 2017\Projects\Planets\Release\Planets.iobj
^C:\Users\mrsma\OneDrive\Documents\Visual Studio 2017\Projects\Planets\Planets\Planets.vcxproj
C:\Users\mrsma\OneDrive\Documents\Visual Studio 2017\Projects\Planets\Release\Planets.ipdb
C:\Users\mrsma\OneDrive\Documents\Visual Studio 2017\Projects\Planets\Release\Planets.iobj
^C:\Users\mrsma\OneDrive\Documents\Visual Studio 2017\Projects\Planets\Planets\Planets.vcxproj
C:\Users\mrsma\OneDrive\Documents\Visual Studio 2017\Projects\Planets\Release\Planets.ipdb
C:\Users\mrsma\OneDrive\Documents\Visual Studio 2017\Projects\Planets\Release\Planets.iobj
^C:\Users\mrsma\OneDrive\Documents\Visual Studio 2017\Projects\Planets\Planets\Planets.vcxproj
C:\Users\mrsma\OneDrive\Documents\Visual Studio 2017\Projects\Planets\Release\Planets.ipdb
C:\Users\mrsma\OneDrive\Documents\Visual Studio 2017\Projects\Planets\Release\Planets.iobj
^C:\Users\mrsma\OneDrive\Documents\Visual Studio 2017\Projects\Planets\Planets\Planets.vcxproj
C:\Users\mrsma\OneDrive\Documents\Visual Studio 2017\Projects\Planets\Release\Planets.ipdb
C:\Users\mrsma\OneDrive\Documents\Visual Studio 2017\Projects\Planets\Release\Planets.iobj
^C:\Users\mrsma\OneDrive\Documents\Visual Studio 2017\Projects\Planets\Planets\Planets.vcxproj
C:\Users\mrsma\OneDrive\Documents\Visual Studio 2017\Projects\Planets\Release\Planets.ipdb
C:\Users\mrsma\OneDrive\Documents\Visual Studio 2017\Projects\Planets\Release\Planets.iobj
^C:\Users\mrsma\OneDrive\Documents\Visual Studio 2017\Projects\Planets\Planets\Planets.vcxproj
C:\Users\mrsma\OneDrive\Documents\Visual Studio 2017\Projects\Planets\Release\Planets.ipdb
C:\Users\mrsma\OneDrive\Documents\Visual Studio 2017\Projects\Planets\Release\Planets.iobj
^C:\Users\mrsma\OneDrive\Documents\Visual Studio 2017\Projects\Planets\Planets\Planets.vcxproj
C:\Users\mrsma\OneDrive\Documents\Visual Studio 2017\Projects\Planets\Release\Planets.ipdb
C:\Users\mrsma\OneDrive\Documents\Visual Studio 2017\Projects\Planets\Release\Planets.iobj
^C:\Users\mrsma\OneDrive\Documents\Visual Studio 2017\Projects\Planets\Planets\Planets.vcxproj
C:\Users\mrsma\OneDrive\Documents\Visual Studio 2017\Projects\Planets\Release\Planets.ipdb
C:\Users\mrsma\OneDrive\Documents\Visual Studio 2017\Projects\Planets\Release\Planets.iobj
^C:\Users\mrsma\OneDrive\Documents\Visual Studio 2017\Projects\Planets\Planets\Planets.vcxproj
C:\Users\mrsma\OneDrive\Documents\Visual Studio 2017\Projects\Planets\Release\Planets.ipdb
C:\Users\mrsma\OneDrive\Documents\Visual Studio 2017\Projects\Planets\Release\Planets.iobj
^C:\Users\mrsma\OneDrive\Documents\Visual Studio 2017\Projects\Planets\Planets\Planets.vcxproj
C:\Users\mrsma\OneDrive\Documents\Visual Studio 2017\Projects\Planets\Release\Planets.ipdb
C:\Users\mrsma\OneDrive\Documents\Visual Studio 2017\Projects\Planets\Release\Planets.iobj
^C:\Users\mrsma\OneDrive\Documents\Visual Studio 2017\Projects\Planets\Planets\Planets.vcxproj
C:\Users\mrsma\OneDrive\Documents\Visual Studio 2017\Projects\Planets\Release\Planets.ipdb
C:\Users\mrsma\OneDrive\Documents\Visual Studio 2017\Projects\Planets\Release\Planets.iobj
^C:\Users\mrsma\OneDrive\Documents\Visual Studio 2017\Projects\Planets\Planets\Planets.vcxproj
C:\Users\mrsma\OneDrive\Documents\Visual Studio 2017\Projects\Planets\Release\Planets.ipdb
C:\Users\mrsma\OneDrive\Documents\Visual Studio 2017\Projects\Planets\Release\Planets.iobj
^C:\Users\mrsma\OneDrive\Documents\Visual Studio 2017\Projects\Planets\Planets\Planets.vcxproj
C:\Users\mrsma\OneDrive\Documents\Visual Studio 2017\Projects\Planets\Release\Planets.ipdb
C:\Users\mrsma\OneDrive\Documents\Visual Studio 2017\Projects\Planets\Release\Planets.iobj
^C:\Users\mrsma\OneDrive\Documents\Visual Studio 2017\Projects\Planets\Planets\Planets.vcxproj
C:\Users\mrsma\OneDrive\Documents\Visual Studio 2017\Projects\Planets\Release\Planets.ipdb
C:\Users\mrsma\OneDrive\Documents\Visual Studio 2017\Projects\Planets\Release\Planets.iobj
^C:\Users\mrsma\OneDrive\Documents\Visual Studio 2017\Projects\Planets\Planets\Planets.vcxproj
C:\Users\mrsma\OneDrive\Documents\Visual Studio 2017\Projects\Planets\Release\Planets.ipdb
C:\Users\mrsma\OneDrive\Documents\Visual Studio 2017\Projects\Planets\Release\Planets.iobj
^C:\Users\mrsma\OneDrive\Documents\Visual Studio 2017\Projects\Planets\Planets\Planets.vcxproj
C:\Users\mrsma\OneDrive\Documents\Visual Studio 2017\Projects\Planets\Release\Planets.ipdb
C:\Users\mrsma\OneDrive\Documents\Visual Studio 2017\Projects\Planets\Release\Planets.iobj
^C:\Users\mrsma\OneDrive\Documents\Visual Studio 2017\Projects\Planets\Planets\Planets.vcxproj
C:\Users\mrsma\OneDrive\Documents\Visual Studio 2017\Projects\Planets\Release\Planets.ipdb
C:\Users\mrsma\OneDrive\Documents\Visual Studio 2017\Projects\Planets\Release\Planets.iobj
^C:\Users\mrsma\OneDrive\Documents\Visual Studio 2017\Projects\Planets\Planets\Planets.vcxproj
C:\Users\mrsma\OneDrive\Documents\Visual Studio 2017\Projects\Planets\Release\Planets.ipdb
C:\Users\mrsma\OneDrive\Documents\Visual Studio 2017\Projects\Planets\Release\Planets.iobj
^C:\Users\mrsma\OneDrive\Documents\Visual Studio 2017\Projects\Planets\Planets\Planets.vcxproj
C:\Users\mrsma\OneDrive\Documents\Visual Studio 2017\Projects\Planets\Release\Planets.ipdb
C:\Users\mrsma\OneDrive\Documents\Visual Studio 2017\Projects\Planets\Release\Planets.iobj
^C:\Users\mrsma\OneDrive\Documents\Visual Studio 2017\Projects\Planets\Planets\Planets.vcxproj
C:\Users\mrsma\OneDrive\Documents\Visual Studio 2017\Projects\Planets\Release\Planets.ipdb
C:\Users\mrsma\OneDrive\Documents\Visual Studio 2017\Projects\Planets\Release\Planets.iobj
^C:\Users\mrsma\OneDrive\Documents\Visual Studio 2017\Projects\Planets\Planets\Planets.vcxproj
C:\Users\mrsma\OneDrive\Documents\Visual Studio 2017\Projects\Planets\Release\Planets.ipdb
C:\Users\mrsma\OneDrive\Documents\Visual Studio 2017\Projects\Planets\Release\Planets.iobj
^C:\Users\mrsma\OneDrive\Documents\Visual Studio 2017\Projects\Planets\Planets\Planets.vcxproj
C:\Users\mrsma\OneDrive\Documents\Visual Studio 2017\Projects\Planets\Release\Planets.ipdb
C:\Users\mrsma\OneDrive\Documents\Visual Studio 2017\Projects\Planets\Release\Planets.iobj
^C:\Users\mrsma\OneDrive\Documents\Visual Studio 2017\Projects\Planets\Planets\Planets.vcxproj
C:\Users\mrsma\OneDrive\Documents\Visual Studio 2017\Projects\Planets\Release\Planets.ipdb
C:\Users\mrsma\OneDrive\Documents\Visual Studio 2017\Projects\Planets\Release\Planets.iobj
^C:\Users\mrsma\OneDrive\Documents\Visual Studio 2017\Projects\Planets\Planets\Planets.vcxproj
C:\Users\mrsma\OneDrive\Documents\Visual Studio 2017\Projects\Planets\Release\Planets.ipdb
C:\Users\mrsma\OneDrive\Documents\Visual Studio 2017\Projects\Planets\Release\Planets.iobj
^C:\Users\mrsma\OneDrive\Documents\Visual Studio 2017\Projects\Planets\Planets\Planets.vcxproj
C:\Users\mrsma\OneDrive\Documents\Visual Studio 2017\Projects\Planets\Release\Planets.ipdb
C:\Users\mrsma\OneDrive\Documents\Visual Studio 2017\Projects\Planets\Release\Planets.iobj
^C:\Users\mrsma\OneDrive\Documents\Visual Studio 2017\Projects\Planets\Planets\Planets.vcxproj
C:\Users\mrsma\OneDrive\Documents\Visual Studio 2017\Projects\Planets\Release\Planets.ipdb
C:\Users\mrsma\OneDrive\Documents\Visual Studio 2017\Projects\Planets\Release\Planets.iobj
^C:\Users\mrsma\OneDrive\Documents\Visual Studio 2017\Projects\Planets\Planets\Planets.vcxproj
C:\Users\mrsma\OneDrive\Documents\Visual Studio 2017\Projects\Planets\Release\Planets.ipdb
C:\Users\mrsma\OneDrive\Documents\Visual Studio 2017\Projects\Planets\Release\Planets.iobj
^C:\Users\mrsma\OneDrive\Documents\Visual Studio 2017\Projects\Planets\Planets\Planets.vcxproj
C:\Users\mrsma\OneDrive\Documents\Visual Studio 2017\Projects\Planets\Release\Planets.ipdb
C:\Users\mrsma\OneDrive\Documents\Visual Studio 2017\Projects\Planets\Release\Planets.iobj
^C:\Users\mrsma\OneDrive\Documents\Visual Studio 2017\Projects\Planets\Planets\Planets.vcxproj
C:\Users\mrsma\OneDrive\Documents\Visual Studio 2017\Projects\Planets\Release\Planets.ipdb
C:\Users\mrsma\OneDrive\Documents\Visual Studio 2017\Projects\Planets\Release\Planets.iobj
^C:\Users\mrsma\OneDrive\Documents\Visual Studio 2017\Projects\Planets\Planets\Planets.vcxproj
C:\Users\mrsma\OneDrive\Documents\Visual Studio 2017\Projects\Planets\Release\Planets.ipdb
C:\Users\mrsma\OneDrive\Documents\Visual Studio 2017\Projects\Planets\Release\Planets.iobj
^C:\Users\mrsma\OneDrive\Documents\Visual Studio 2017\Projects\Planets\Planets\Planets.vcxproj
C:\Users\mrsma\OneDrive\Documents\Visual Studio 2017\Projects\Planets\Release\Planets.ipdb
C:\Users\mrsma\OneDrive\Documents\Visual Studio 2017\Projects\Planets\Release\Planets.iobj
^C:\Users\mrsma\OneDrive\Documents\Visual Studio 2017\Projects\Planets\Planets\Planets.vcxproj
C:\Users\mrsma\OneDrive\Documents\Visual Studio 2017\Projects\Planets\Release\Planets.ipdb
C:\Users\mrsma\OneDrive\Documents\Visual Studio 2017\Projects\Planets\Release\Planets.iobj
^C:\Users\mrsma\OneDrive\Documents\Visual Studio 2017\Projects\Planets\Planets\Planets.vcxproj
C:\Users\mrsma\OneDrive\Documents\Visual Studio 2017\Projects\Planets\Release\Planets.ipdb
C:\Users\mrsma\OneDrive\Documents\Visual Studio 2017\Projects\Planets\Release\Planets.iobj
^C:\Users\mrsma\OneDrive\Documents\Visual Studio 2017\Projects\Planets\Planets\Planets.vcxproj
C:\Users\mrsma\OneDrive\Documents\Visual Studio 2017\Projects\Planets\Release\Planets.ipdb
C:\Users\mrsma\OneDrive\Documents\Visual Studio 2017\Projects\Planets\Release\Planets.iobj
^C:\Users\mrsma\OneDrive\Documents\Visual Studio 2017\Projects\Planets\Planets\Planets.vcxproj
C:\Users\mrsma\OneDrive\Documents\Visual Studio 2017\Projects\Planets\Release\Planets.ipdb
C:\Users\mrsma\OneDrive\Documents\Visual Studio 2017\Projects\Planets\Release\Planets.iobj
^C:\Users\mrsma\OneDrive\Documents\Visual Studio 2017\Projects\Planets\Planets\Planets.vcxproj
C:\Users\mrsma\OneDrive\Documents\Visual Studio 2017\Projects\Planets\Release\Planets.ipdb
C:\Users\mrsma\OneDrive\Documents\Visual Studio 2017\Projects\Planets\Release\Planets.iobj
^C:\Users\mrsma\OneDrive\Documents\Visual Studio 2017\Projects\Planets\Planets\Planets.vcxproj
C:\Users\mrsma\OneDrive\Documents\Visual Studio 2017\Projects\Planets\Release\Planets.ipdb
C:\Users\mrsma\OneDrive\Documents\Visual Studio 2017\Projects\Planets\Release\Planets.iobj
^C:\Users\mrsma\OneDrive\Documents\Visual Studio 2017\Projects\Planets\Planets\Planets.vcxproj
C:\Users\mrsma\OneDrive\Documents\Visual Studio 2017\Projects\Planets\Release\Planets.ipdb
C:\Users\mrsma\OneDrive\Documents\Visual Studio 2017\Projects\Planets\Release\Planets.iobj
^C:\Users\mrsma\OneDrive\Documents\Visual Studio 2017\Projects\Planets\Planets\Planets.vcxproj
C:\Users\mrsma\OneDrive\Documents\Visual Studio 2017\Projects\Planets\Release\Planets.ipdb
C:\Users\mrsma\OneDrive\Documents\Visual Studio 2017\Projects\Planets\Release\Planets.iobj
^C:\Users\mrsma\OneDrive\Documents\Visual Studio 2017\Projects\Planets\Planets\Planets.vcxproj
C:\Users\mrsma\OneDrive\Documents\Visual Studio 2017\Projects\Planets\Release\Planets.ipdb
C:\Users\mrsma\OneDrive\Documents\Visual Studio 2017\Projects\Planets\Release\Planets.iobj
^C:\Users\mrsma\OneDrive\Documents\Visual Studio 2017\Projects\Planets\Planets\Planets.vcxproj
C:\Users\mrsma\OneDrive\Documents\Visual Studio 2017\Projects\Planets\Release\Planets.ipdb
C:\Users\mrsma\OneDrive\Documents\Visual Studio 2017\Projects\Planets\Release\Planets.iobj
^C:\Users\mrsma\OneDrive\Documents\Visual Studio 2017\Projects\Planets\Planets\Planets.vcxproj
C:\Users\mrsma\OneDrive\Documents\Visual Studio 2017\Projects\Planets\Release\Planets.ipdb
C:\Users\mrsma\OneDrive\Documents\Visual Studio 2017\Projects\Planets\Release\Planets.iobj
^C:\Users\mrsma\OneDrive\Documents\Visual Studio 2017\Projects\Planets\Planets\Planets.vcxproj
C:\Users\mrsma\OneDrive\Documents\Visual Studio 2017\Projects\Planets\Release\Planets.ipdb
C:\Users\mrsma\OneDrive\Documents\Visual Studio 2017\Projects\Planets\Release\Planets.iobj
^C:\Users\mrsma\OneDrive\Documents\Visual Studio 2017\Projects\Planets\Planets\Planets.vcxproj
C:\Users\mrsma\OneDrive\Documents\Visual Studio 2017\Projects\Planets\Release\Planets.ipdb
C:\Users\mrsma\OneDrive\Documents\Visual Studio 2017\Projects\Planets\Release\Planets.iobj
^C:\Users\mrsma\OneDrive\Documents\Visual Studio 2017\Projects\Planets\Planets\Planets.vcxproj
C:\Users\mrsma\OneDrive\Documents\Visual Studio 2017\Projects\Planets\Release\Planets.ipdb
C:\Users\mrsma\OneDrive\Documents\Visual Studio 2017\Projects\Planets\Release\Planets.iobj
^C:\Users\mrsma\OneDrive\Documents\Visual Studio 2017\Projects\Planets\Planets\Planets.vcxproj
C:\Users\mrsma\OneDrive\Documents\Visual Studio 2017\Projects\Planets\Release\Planets.ipdb
C:\Users\mrsma\OneDrive\Documents\Visual Studio 2017\Projects\Planets\Release\Planets.iobj
^C:\Users\mrsma\OneDrive\Documents\Visual Studio 2017\Projects\Planets\Planets\Planets.vcxproj
C:\Users\mrsma\OneDrive\Documents\Visual Studio 2017\Projects\Planets\Release\Planets.ipdb
C:\Users\mrsma\OneDrive\Documents\Visual Studio 2017\Projects\Planets\Release\Planets.iobj
^C:\Users\mrsma\OneDrive\Documents\Visual Studio 2017\Projects\Planets\Planets\Planets.vcxproj
C:\Users\mrsma\OneDrive\Documents\Visual Studio 2017\Projects\Planets\Release\Planets.ipdb
C:\Users\mrsma\OneDrive\Documents\Visual Studio 2017\Projects\Planets\Release\Planets.iobj
^C:\Users\mrsma\OneDrive\Documents\Visual Studio 2017\Projects\Planets\Planets\Planets.vcxproj
C:\Users\mrsma\OneDrive\Documents\Visual Studio 2017\Projects\Planets\Release\Planets.ipdb
C:\Users\mrsma\OneDrive\Documents\Visual Studio 2017\Projects\Planets\Release\Planets.iobj
^C:\Users\mrsma\OneDrive\Documents\Visual Studio 2017\Projects\Planets\Planets\Planets.vcxproj
C:\Users\mrsma\OneDrive\Documents\Visual Studio 2017\Projects\Planets\Release\Planets.ipdb
C:\Users\mrsma\OneDrive\Documents\Visual Studio 2017\Projects\Planets\Release\Planets.iobj
^C:\Users\mrsma\OneDrive\Documents\Visual Studio 2017\Projects\Planets\Planets\Planets.vcxproj
C:\Users\mrsma\OneDrive\Documents\Visual Studio 2017\Projects\Planets\Release\Planets.ipdb
C:\Users\mrsma\OneDrive\Documents\Visual Studio 2017\Projects\Planets\Release\Planets.iobj
^C:\Users\mrsma\OneDrive\Documents\Visual Studio 2017\Projects\Planets\Planets\Planets.vcxproj
C:\Users\mrsma\OneDrive\Documents\Visual Studio 2017\Projects\Planets\Release\Planets.ipdb
C:\Users\mrsma\OneDrive\Documents\Visual Studio 2017\Projects\Planets\Release\Planets.iobj
^C:\Users\mrsma\OneDrive\Documents\Visual Studio 2017\Projects\Planets\Planets\Planets.vcxproj
C:\Users\mrsma\OneDrive\Documents\Visual Studio 2017\Projects\Planets\Release\Planets.ipdb
C:\Users\mrsma\OneDrive\Documents\Visual Studio 2017\Projects\Planets\Release\Planets.iobj
^C:\Users\mrsma\OneDrive\Documents\Visual Studio 2017\Projects\Planets\Planets\Planets.vcxproj
C:\Users\mrsma\OneDrive\Documents\Visual Studio 2017\Projects\Planets\Release\Planets.ipdb
C:\Users\mrsma\OneDrive\Documents\Visual Studio 2017\Projects\Planets\Release\Planets.iobj
^C:\Users\mrsma\OneDrive\Documents\Visual Studio 2017\Projects\Planets\Planets\Planets.vcxproj
C:\Users\mrsma\OneDrive\Documents\Visual Studio 2017\Projects\Planets\Release\Planets.ipdb
C:\Users\mrsma\OneDrive\Documents\Visual Studio 2017\Projects\Planets\Release\Planets.iobj
^C:\Users\mrsma\OneDrive\Documents\Visual Studio 2017\Projects\Planets\Planets\Planets.vcxproj
C:\Users\mrsma\OneDrive\Documents\Visual Studio 2017\Projects\Planets\Release\Planets.ipdb
C:\Users\mrsma\OneDrive\Documents\Visual Studio 2017\Projects\Planets\Release\Planets.iobj
^C:\Users\mrsma\OneDrive\Documents\Visual Studio 2017\Projects\Planets\Planets\Planets.vcxproj
C:\Users\mrsma\OneDrive\Documents\Visual Studio 2017\Projects\Planets\Release\Planets.ipdb
C:\Users\mrsma\OneDrive\Documents\Visual Studio 2017\Projects\Planets\Release\Planets.iobj
^C:\Users\mrsma\OneDrive\Documents\Visual Studio 2017\Projects\Planets\Planets\Planets.vcxproj
C:\Users\mrsma\OneDrive\Documents\Visual Studio 2017\Projects\Planets\Release\Planets.ipdb
C:\Users\mrsma\OneDrive\Documents\Visual Studio 2017\Projects\Planets\Release\Planets.iobj
^C:\Users\mrsma\OneDrive\Documents\Visual Studio 2017\Projects\Planets\Planets\Planets.vcxproj
C:\Users\mrsma\OneDrive\Documents\Visual Studio 2017\Projects\Planets\Release\Planets.ipdb
C:\Users\mrsma\OneDrive\Documents\Visual Studio 2017\Projects\Planets\Release\Planets.iobj
^C:\Users\mrsma\OneDrive\Documents\Visual Studio 2017\Projects\Planets\Planets\Planets.vcxproj
C:\Users\mrsma\OneDrive\Documents\Visual Studio 2017\Projects\Planets\Release\Planets.ipdb
C:\Users\mrsma\OneDrive\Documents\Visual Studio 2017\Projects\Planets\Release\Planets.iobj
^C:\Users\mrsma\OneDrive\Documents\Visual Studio 2017\Projects\Planets\Planets\Planets.vcxproj
C:\Users\mrsma\OneDrive\Documents\Visual Studio 2017\Projects\Planets\Release\Planets.ipdb
C:\Users\mrsma\OneDrive\Documents\Visual Studio 2017\Projects\Planets\Release\Planets.iobj
^C:\Users\mrsma\OneDrive\Documents\Visual Studio 2017\Projects\Planets\Planets\Planets.vcxproj
C:\Users\mrsma\OneDrive\Documents\Visual Studio 2017\Projects\Planets\Release\Planets.ipdb
C:\Users\mrsma\OneDrive\Documents\Visual Studio 2017\Projects\Planets\Release\Planets.iobj
^C:\Users\mrsma\OneDrive\Documents\Visual Studio 2017\Projects\Planets\Planets\Planets.vcxproj
C:\Users\mrsma\OneDrive\Documents\Visual Studio 2017\Projects\Planets\Release\Planets.ipdb
C:\Users\mrsma\OneDrive\Documents\Visual Studio 2017\Projects\Planets\Release\Planets.iobj
^C:\Users\mrsma\OneDrive\Documents\Visual Studio 2017\Projects\Planets\Planets\Planets.vcxproj
C:\Users\mrsma\OneDrive\Documents\Visual Studio 2017\Projects\Planets\Release\Planets.ipdb
C:\Users\mrsma\OneDrive\Documents\Visual Studio 2017\Projects\Planets\Release\Planets.iobj
^C:\Users\mrsma\OneDrive\Documents\Visual Studio 2017\Projects\Planets\Planets\Planets.vcxproj
C:\Users\mrsma\OneDrive\Documents\Visual Studio 2017\Projects\Planets\Release\Planets.ipdb
C:\Users\mrsma\OneDrive\Documents\Visual Studio 2017\Projects\Planets\Release\Planets.iobj
^C:\Users\mrsma\OneDrive\Documents\Visual Studio 2017\Projects\Planets\Planets\Planets.vcxproj
C:\Users\mrsma\OneDrive\Documents\Visual Studio 2017\Projects\Planets\Release\Planets.ipdb
C:\Users\mrsma\OneDrive\Documents\Visual Studio 2017\Projects\Planets\Release\Planets.iobj
^C:\Users\mrsma\OneDrive\Documents\Visual Studio 2017\Projects\Planets\Planets\Planets.vcxproj
C:\Users\mrsma\OneDrive\Documents\Visual Studio 2017\Projects\Planets\Release\Planets.ipdb
C:\Users\mrsma\OneDrive\Documents\Visual Studio 2017\Projects\Planets\Release\Planets.iobj
^C:\Users\mrsma\OneDrive\Documents\Visual Studio 2017\Projects\Planets\Planets\Planets.vcxproj
C:\Users\mrsma\OneDrive\Documents\Visual Studio 2017\Projects\Planets\Release\Planets.ipdb
C:\Users\mrsma\OneDrive\Documents\Visual Studio 2017\Projects\Planets\Release\Planets.iobj
^C:\Users\mrsma\OneDrive\Documents\Visual Studio 2017\Projects\Planets\Planets\Planets.vcxproj
C:\Users\mrsma\OneDrive\Documents\Visual Studio 2017\Projects\Planets\Release\Planets.ipdb
C:\Users\mrsma\OneDrive\Documents\Visual Studio 2017\Projects\Planets\Release\Planets.iobj
^C:\Users\mrsma\OneDrive\Documents\Visual Studio 2017\Projects\Planets\Planets\Planets.vcxproj
C:\Users\mrsma\OneDrive\Documents\Visual Studio 2017\Projects\Planets\Release\Planets.ipdb
C:\Users\mrsma\OneDrive\Documents\Visual Studio 2017\Projects\Planets\Release\Planets.iobj
^C:\Users\mrsma\OneDrive\Documents\Visual Studio 2017\Projects\Planets\Planets\Planets.vcxproj
C:\Users\mrsma\OneDrive\Documents\Visual Studio 2017\Projects\Planets\Release\Planets.ipdb
C:\Users\mrsma\OneDrive\Documents\Visual Studio 2017\Projects\Planets\Release\Planets.iobj
^C:\Users\mrsma\OneDrive\Documents\Visual Studio 2017\Projects\Planets\Planets\Planets.vcxproj
C:\Users\mrsma\OneDrive\Documents\Visual Studio 2017\Projects\Planets\Release\Planets.ipdb
C:\Users\mrsma\OneDrive\Documents\Visual Studio 2017\Projects\Planets\Release\Planets.iobj
^C:\Users\mrsma\OneDrive\Documents\Visual Studio 2017\Projects\Planets\Planets\Planets.vcxproj
C:\Users\mrsma\OneDrive\Documents\Visual Studio 2017\Projects\Planets\Release\Planets.ipdb
C:\Users\mrsma\OneDrive\Documents\Visual Studio 2017\Projects\Planets\Release\Planets.iobj
^C:\Users\mrsma\OneDrive\Documents\Visual Studio 2017\Projects\Planets\Planets\Planets.vcxproj
C:\Users\mrsma\OneDrive\Documents\Visual Studio 2017\Projects\Planets\Release\Planets.ipdb
C:\Users\mrsma\OneDrive\Documents\Visual Studio 2017\Projects\Planets\Release\Planets.iobj
^C:\Users\mrsma\OneDrive\Documents\Visual Studio 2017\Projects\Planets\Planets\Planets.vcxproj
C:\Users\mrsma\OneDrive\Documents\Visual Studio 2017\Projects\Planets\Release\Planets.ipdb
C:\Users\mrsma\OneDrive\Documents\Visual Studio 2017\Projects\Planets\Release\Planets.iobj
^C:\Users\mrsma\OneDrive\Documents\Visual Studio 2017\Projects\Planets\Planets\Planets.vcxproj
C:\Users\mrsma\OneDrive\Documents\Visual Studio 2017\Projects\Planets\Release\Planets.ipdb
C:\Users\mrsma\OneDrive\Documents\Visual Studio 2017\Projects\Planets\Release\Planets.iobj
^C:\Users\mrsma\OneDrive\Documents\Visual Studio 2017\Projects\Planets\Planets\Planets.vcxproj
C:\Users\mrsma\OneDrive\Documents\Visual Studio 2017\Projects\Planets\Release\Planets.ipdb
C:\Users\mrsma\OneDrive\Documents\Visual Studio 2017\Projects\Planets\Release\Planets.iobj
^C:\Users\mrsma\OneDrive\Documents\Visual Studio 2017\Projects\Planets\Planets\Planets.vcxproj
C:\Users\mrsma\OneDrive\Documents\Visual Studio 2017\Projects\Planets\Release\Planets.ipdb
C:\Users\mrsma\OneDrive\Documents\Visual Studio 2017\Projects\Planets\Release\Planets.iobj
^C:\Users\mrsma\OneDrive\Documents\Visual Studio 2017\Projects\Planets\Planets\Planets.vcxproj
C:\Users\mrsma\OneDrive\Documents\Visual Studio 2017\Projects\Planets\Release\Planets.ipdb
C:\Users\mrsma\OneDrive\Documents\Visual Studio 2017\Projects\Planets\Release\Planets.iobj
^C:\Users\mrsma\OneDrive\Documents\Visual Studio 2017\Projects\Planets\Planets\Planets.vcxproj
C:\Users\mrsma\OneDrive\Documents\Visual Studio 2017\Projects\Planets\Release\Planets.ipdb
C:\Users\mrsma\OneDrive\Documents\Visual Studio 2017\Projects\Planets\Release\Planets.iobj
^C:\Users\mrsma\OneDrive\Documents\Visual Studio 2017\Projects\Planets\Planets\Planets.vcxproj
C:\Users\mrsma\OneDrive\Documents\Visual Studio 2017\Projects\Planets\Release\Planets.ipdb
C:\Users\mrsma\OneDrive\Documents\Visual Studio 2017\Projects\Planets\Release\Planets.iobj
^C:\Users\mrsma\OneDrive\Documents\Visual Studio 2017\Projects\Planets\Planets\Planets.vcxproj
C:\Users\mrsma\OneDrive\Documents\Visual Studio 2017\Projects\Planets\Release\Planets.ipdb
C:\Users\mrsma\OneDrive\Documents\Visual Studio 2017\Projects\Planets\Release\Planets.iobj
^C:\Users\mrsma\OneDrive\Documents\Visual Studio 2017\Projects\Planets\Planets\Planets.vcxproj
C:\Users\mrsma\OneDrive\Documents\Visual Studio 2017\Projects\Planets\Release\Planets.ipdb
C:\Users\mrsma\OneDrive\Documents\Visual Studio 2017\Projects\Planets\Release\Planets.iobj
^C:\Users\mrsma\OneDrive\Documents\Visual Studio 2017\Projects\Planets\Planets\Planets.vcxproj
C:\Users\mrsma\OneDrive\Documents\Visual Studio 2017\Projects\Planets\Release\Planets.ipdb
C:\Users\mrsma\OneDrive\Documents\Visual Studio 2017\Projects\Planets\Release\Planets.iobj
^C:\Users\mrsma\OneDrive\Documents\Visual Studio 2017\Projects\Planets\Planets\Planets.vcxproj
C:\Users\mrsma\OneDrive\Documents\Visual Studio 2017\Projects\Planets\Release\Planets.ipdb
C:\Users\mrsma\OneDrive\Documents\Visual Studio 2017\Projects\Planets\Release\Planets.iobj
^C:\Users\mrsma\OneDrive\Documents\Visual Studio 2017\Projects\Planets\Planets\Planets.vcxproj
C:\Users\mrsma\OneDrive\Documents\Visual Studio 2017\Projects\Planets\Release\Planets.ipdb
C:\Users\mrsma\OneDrive\Documents\Visual Studio 2017\Projects\Planets\Release\Planets.iobj
^C:\Users\mrsma\OneDrive\Documents\Visual Studio 2017\Projects\Planets\Planets\Planets.vcxproj
C:\Users\mrsma\OneDrive\Documents\Visual Studio 2017\Projects\Planets\Release\Planets.ipdb
C:\Users\mrsma\OneDrive\Documents\Visual Studio 2017\Projects\Planets\Release\Planets.iobj
^C:\Users\mrsma\OneDrive\Documents\Visual Studio 2017\Projects\Planets\Planets\Planets.vcxproj
C:\Users\mrsma\OneDrive\Documents\Visual Studio 2017\Projects\Planets\Release\Planets.ipdb
C:\Users\mrsma\OneDrive\Documents\Visual Studio 2017\Projects\Planets\Release\Planets.iobj
^C:\Users\mrsma\OneDrive\Documents\Visual Studio 2017\Projects\Planets\Planets\Planets.vcxproj
C:\Users\mrsma\OneDrive\Documents\Visual Studio 2017\Projects\Planets\Release\Planets.ipdb
C:\Users\mrsma\OneDrive\Documents\Visual Studio 2017\Projects\Planets\Release\Planets.iobj
^C:\Users\mrsma\OneDrive\Documents\Visual Studio 2017\Projects\Planets\Planets\Planets.vcxproj
C:\Users\mrsma\OneDrive\Documents\Visual Studio 2017\Projects\Planets\Release\Planets.ipdb
C:\Users\mrsma\OneDrive\Documents\Visual Studio 2017\Projects\Planets\Release\Planets.iobj
^C:\Users\mrsma\OneDrive\Documents\Visual Studio 2017\Projects\Planets\Planets\Planets.vcxproj
C:\Users\mrsma\OneDrive\Documents\Visual Studio 2017\Projects\Planets\Release\Planets.ipdb
C:\Users\mrsma\OneDrive\Documents\Visual Studio 2017\Projects\Planets\Release\Planets.iobj
^C:\Users\mrsma\OneDrive\Documents\Visual Studio 2017\Projects\Planets\Planets\Planets.vcxproj
C:\Users\mrsma\OneDrive\Documents\Visual Studio 2017\Projects\Planets\Release\Planets.ipdb
C:\Users\mrsma\OneDrive\Documents\Visual Studio 2017\Projects\Planets\Release\Planets.iobj
^C:\Users\mrsma\OneDrive\Documents\Visual Studio 2017\Projects\Planets\Planets\Planets.vcxproj
C:\Users\mrsma\OneDrive\Documents\Visual Studio 2017\Projects\Planets\Release\Planets.ipdb
C:\Users\mrsma\OneDrive\Documents\Visual Studio 2017\Projects\Planets\Release\Planets.iobj
^C:\Users\mrsma\OneDrive\Documents\Visual Studio 2017\Projects\Planets\Planets\Planets.vcxproj
C:\Users\mrsma\OneDrive\Documents\Visual Studio 2017\Projects\Planets\Release\Planets.ipdb
C:\Users\mrsma\OneDrive\Documents\Visual Studio 2017\Projects\Planets\Release\Planets.iobj
^C:\Users\mrsma\OneDrive\Documents\Visual Studio 2017\Projects\Planets\Planets\Planets.vcxproj
C:\Users\mrsma\OneDrive\Documents\Visual Studio 2017\Projects\Planets\Release\Planets.ipdb
C:\Users\mrsma\OneDrive\Documents\Visual Studio 2017\Projects\Planets\Release\Planets.iobj
^C:\Users\mrsma\OneDrive\Documents\Visual Studio 2017\Projects\Planets\Planets\Planets.vcxproj
C:\Users\mrsma\OneDrive\Documents\Visual Studio 2017\Projects\Planets\Release\Planets.ipdb
C:\Users\mrsma\OneDrive\Documents\Visual Studio 2017\Projects\Planets\Release\Planets.iobj
^C:\Users\mrsma\OneDrive\Documents\Visual Studio 2017\Projects\Planets\Planets\Planets.vcxproj
C:\Users\mrsma\OneDrive\Documents\Visual Studio 2017\Projects\Planets\Release\Planets.ipdb
C:\Users\mrsma\OneDrive\Documents\Visual Studio 2017\Projects\Planets\Release\Planets.iobj
^C:\Users\mrsma\OneDrive\Documents\Visual Studio 2017\Projects\Planets\Planets\Planets.vcxproj
C:\Users\mrsma\OneDrive\Documents\Visual Studio 2017\Projects\Planets\Release\Planets.ipdb
C:\Users\mrsma\OneDrive\Documents\Visual Studio 2017\Projects\Planets\Release\Planets.iobj
^C:\Users\mrsma\OneDrive\Documents\Visual Studio 2017\Projects\Planets\Planets\Planets.vcxproj
C:\Users\mrsma\OneDrive\Documents\Visual Studio 2017\Projects\Planets\Release\Planets.ipdb
C:\Users\mrsma\OneDrive\Documents\Visual Studio 2017\Projects\Planets\Release\Planets.iobj
^C:\Users\mrsma\OneDrive\Documents\Visual Studio 2017\Projects\Planets\Planets\Planets.vcxproj
C:\Users\mrsma\OneDrive\Documents\Visual Studio 2017\Projects\Planets\Release\Planets.ipdb
C:\Users\mrsma\OneDrive\Documents\Visual Studio 2017\Projects\Planets\Release\Planets.iobj
^C:\Users\mrsma\OneDrive\Documents\Visual Studio 2017\Projects\Planets\Planets\Planets.vcxproj
C:\Users\mrsma\OneDrive\Documents\Visual Studio 2017\Projects\Planets\Release\Planets.ipdb
C:\Users\mrsma\OneDrive\Documents\Visual Studio 2017\Projects\Planets\Release\Planets.iobj
^C:\Users\mrsma\OneDrive\Documents\Visual Studio 2017\Projects\Planets\Planets\Planets.vcxproj
C:\Users\mrsma\OneDrive\Documents\Visual Studio 2017\Projects\Planets\Release\Planets.ipdb
C:\Users\mrsma\OneDrive\Documents\Visual Studio 2017\Projects\Planets\Release\Planets.iobj
^C:\Users\mrsma\OneDrive\Documents\Visual Studio 2017\Projects\Planets\Planets\Planets.vcxproj
C:\Users\mrsma\OneDrive\Documents\Visual Studio 2017\Projects\Planets\Release\Planets.ipdb
C:\Users\mrsma\OneDrive\Documents\Visual Studio 2017\Projects\Planets\Release\Planets.iobj
^C:\Users\mrsma\OneDrive\Documents\Visual Studio 2017\Projects\Planets\Planets\Planets.vcxproj
C:\Users\mrsma\OneDrive\Documents\Visual Studio 2017\Projects\Planets\Release\Planets.ipdb
C:\Users\mrsma\OneDrive\Documents\Visual Studio 2017\Projects\Planets\Release\Planets.iobj
^C:\Users\mrsma\OneDrive\Documents\Visual Studio 2017\Projects\Planets\Planets\Planets.vcxproj
C:\Users\mrsma\OneDrive\Documents\Visual Studio 2017\Projects\Planets\Release\Planets.ipdb
C:\Users\mrsma\OneDrive\Documents\Visual Studio 2017\Projects\Planets\Release\Planets.iobj
^C:\Users\mrsma\OneDrive\Documents\Visual Studio 2017\Projects\Planets\Planets\Planets.vcxproj
C:\Users\mrsma\OneDrive\Documents\Visual Studio 2017\Projects\Planets\Release\Planets.ipdb
C:\Users\mrsma\OneDrive\Documents\Visual Studio 2017\Projects\Planets\Release\Planets.iobj
^C:\Users\mrsma\OneDrive\Documents\Visual Studio 2017\Projects\Planets\Planets\Planets.vcxproj
C:\Users\mrsma\OneDrive\Documents\Visual Studio 2017\Projects\Planets\Release\Planets.ipdb
C:\Users\mrsma\OneDrive\Documents\Visual Studio 2017\Projects\Planets\Release\Planets.iobj
^C:\Users\mrsma\OneDrive\Documents\Visual Studio 2017\Projects\Planets\Planets\Planets.vcxproj
C:\Users\mrsma\OneDrive\Documents\Visual Studio 2017\Projects\Planets\Release\Planets.ipdb
C:\Users\mrsma\OneDrive\Documents\Visual Studio 2017\Projects\Planets\Release\Planets.iobj
^C:\Users\mrsma\OneDrive\Documents\Visual Studio 2017\Projects\Planets\Planets\Planets.vcxproj
C:\Users\mrsma\OneDrive\Documents\Visual Studio 2017\Projects\Planets\Release\Planets.ipdb
C:\Users\mrsma\OneDrive\Documents\Visual Studio 2017\Projects\Planets\Release\Planets.iobj
^C:\Users\mrsma\OneDrive\Documents\Visual Studio 2017\Projects\Planets\Planets\Planets.vcxproj
C:\Users\mrsma\OneDrive\Documents\Visual Studio 2017\Projects\Planets\Release\Planets.ipdb
C:\Users\mrsma\OneDrive\Documents\Visual Studio 2017\Projects\Planets\Release\Planets.iobj
^C:\Users\mrsma\OneDrive\Documents\Visual Studio 2017\Projects\Planets\Planets\Planets.vcxproj
C:\Users\mrsma\OneDrive\Documents\Visual Studio 2017\Projects\Planets\Release\Planets.ipdb
C:\Users\mrsma\OneDrive\Documents\Visual Studio 2017\Projects\Planets\Release\Planets.iobj
^C:\Users\mrsma\OneDrive\Documents\Visual Studio 2017\Projects\Planets\Planets\Planets.vcxproj
C:\Users\mrsma\OneDrive\Documents\Visual Studio 2017\Projects\Planets\Release\Planets.ipdb
C:\Users\mrsma\OneDrive\Documents\Visual Studio 2017\Projects\Planets\Release\Planets.iobj
^C:\Users\mrsma\OneDrive\Documents\Visual Studio 2017\Projects\Planets\Planets\Planets.vcxproj
C:\Users\mrsma\OneDrive\Documents\Visual Studio 2017\Projects\Planets\Release\Planets.ipdb
C:\Users\mrsma\OneDrive\Documents\Visual Studio 2017\Projects\Planets\Release\Planets.iobj
^C:\Users\mrsma\OneDrive\Documents\Visual Studio 2017\Projects\Planets\Planets\Planets.vcxproj
C:\Users\mrsma\OneDrive\Documents\Visual Studio 2017\Projects\Planets\Release\Planets.ipdb
C:\Users\mrsma\OneDrive\Documents\Visual Studio 2017\Projects\Planets\Release\Planets.iobj
^C:\Users\mrsma\OneDrive\Documents\Visual Studio 2017\Projects\Planets\Planets\Planets.vcxproj
C:\Users\mrsma\OneDrive\Documents\Visual Studio 2017\Projects\Planets\Release\Planets.ipdb
C:\Users\mrsma\OneDrive\Documents\Visual Studio 2017\Projects\Planets\Release\Planets.iobj
^C:\Users\mrsma\OneDrive\Documents\Visual Studio 2017\Projects\Planets\Planets\Planets.vcxproj
C:\Users\mrsma\OneDrive\Documents\Visual Studio 2017\Projects\Planets\Release\Planets.ipdb
C:\Users\mrsma\OneDrive\Documents\Visual Studio 2017\Projects\Planets\Release\Planets.iobj
^C:\Users\mrsma\OneDrive\Documents\Visual Studio 2017\Projects\Planets\Planets\Planets.vcxproj
C:\Users\mrsma\OneDrive\Documents\Visual Studio 2017\Projects\Planets\Release\Planets.ipdb
C:\Users\mrsma\OneDrive\Documents\Visual Studio 2017\Projects\Planets\Release\Planets.iobj
^C:\Users\mrsma\OneDrive\Documents\Visual Studio 2017\Projects\Planets\Planets\Planets.vcxproj
C:\Users\mrsma\OneDrive\Documents\Visual Studio 2017\Projects\Planets\Release\Planets.ipdb
C:\Users\mrsma\OneDrive\Documents\Visual Studio 2017\Projects\Planets\Release\Planets.iobj
^C:\Users\mrsma\OneDrive\Documents\Visual Studio 2017\Projects\Planets\Planets\Planets.vcxproj
C:\Users\mrsma\OneDrive\Documents\Visual Studio 2017\Projects\Planets\Release\Planets.ipdb
C:\Users\mrsma\OneDrive\Documents\Visual Studio 2017\Projects\Planets\Release\Planets.iobj
^C:\Users\mrsma\OneDrive\Documents\Visual Studio 2017\Projects\Planets\Planets\Planets.vcxproj
C:\Users\mrsma\OneDrive\Documents\Visual Studio 2017\Projects\Planets\Release\Planets.ipdb
C:\Users\mrsma\OneDrive\Documents\Visual Studio 2017\Projects\Planets\Release\Planets.iobj
